<?xml version="1.0" encoding="UTF-8" standalone="no"?>
<svg
   xmlns:dc="http://purl.org/dc/elements/1.1/"
   xmlns:cc="http://creativecommons.org/ns#"
   xmlns:rdf="http://www.w3.org/1999/02/22-rdf-syntax-ns#"
   xmlns:svg="http://www.w3.org/2000/svg"
   xmlns="http://www.w3.org/2000/svg"
   xmlns:sodipodi="http://sodipodi.sourceforge.net/DTD/sodipodi-0.dtd"
   xmlns:inkscape="http://www.inkscape.org/namespaces/inkscape"
   height="115.55012"
   width="115.55012"
   inkscape:version="1.0beta2 (2b71d25, 2019-12-03)"
   sodipodi:docname="dadvelopment-people-round.svg"
   id="svg3765"
   version="1.1"
   viewBox="0 0 115.55012 115.55012">
  <metadata
     id="metadata3769">
    <rdf:RDF>
      <cc:Work
         rdf:about="">
        <dc:format>image/svg+xml</dc:format>
        <dc:type
           rdf:resource="http://purl.org/dc/dcmitype/StillImage" />
        <dc:title></dc:title>
      </cc:Work>
    </rdf:RDF>
  </metadata>
  <sodipodi:namedview
     inkscape:document-rotation="0"
     inkscape:guide-bbox="true"
     showguides="true"
     inkscape:current-layer="layer1"
     inkscape:window-maximized="1"
     inkscape:window-y="23"
     inkscape:window-x="1920"
     inkscape:cy="103.15944"
     inkscape:cx="62.370169"
     inkscape:zoom="3.4703557"
     showgrid="false"
     id="namedview3767"
     inkscape:window-height="1005"
     inkscape:window-width="1680"
     inkscape:pageshadow="2"
     inkscape:pageopacity="0"
     guidetolerance="10"
     gridtolerance="10"
     objecttolerance="10"
     borderopacity="1"
     bordercolor="#666666"
     pagecolor="#100000">
    <sodipodi:guide
       inkscape:locked="false"
       id="guide4623"
       orientation="0,1"
       position="0.42384974,-136.6025" />
    <sodipodi:guide
       inkscape:locked="false"
       id="guide4625"
       orientation="1,0"
       position="0.44902832,-136.37698" />
  </sodipodi:namedview>
  <defs
     id="SvgjsDefs2426" />
  <g
     transform="translate(1.0244873e-5,-0.28816463)"
     inkscape:label="ellipsis"
     id="layer2"
     inkscape:groupmode="layer" />
  <g
     transform="translate(1.0244873e-5,-0.28816463)"
     inkscape:label="people"
     id="layer1"
     inkscape:groupmode="layer">
    <g
       transform="translate(-35.443053,-52.732347)"
       id="g35">
      <circle
         id="path3773"
         cx="93.218102"
         cy="110.79557"
         r="57.775059"
         style="fill:#ffffff" />
      <g
         id="people"
         featurekey="symbol1"
         transform="matrix(0.97743972,0,0,0.97743972,57.8367,67.321989)"
         style="fill:#396358">
        <path
           d="m 39.4,24.5 c 5.1,0 9.3,-4.1 9.3,-9.3 C 48.7,10 44.5,6 39.4,6 c -5.1,0 -9.3,4.1 -9.3,9.3 0,5.2 4.2,9.2 9.3,9.2 z m -16.5,27 c 0,-3.3 -2.7,-6 -6,-6 -3.3,0 -6,2.7 -6,6 0,3.3 2.7,6 6,6 3.3,0 6,-2.7 6,-6 z m 2.5,17.9 c 0,-1.1 0.2,-1.8 1,-2.6 2.7,-2.6 5,-5.6 6.2,-9.2 0.7,-2 1,-4 1.2,-6.1 0,-0.3 0,-0.7 -0.1,-1 -0.2,-0.7 -1,-1.4 -1.2,-1.5 -1,-0.4 -1.4,-0.2 -2.1,1.1 -0.9,1.5 -1.7,3.2 -2.6,4.7 -2.1,3.6 -4.7,6.6 -9.2,7.4 -0.8,0.1 -1.6,0.1 -2.3,0.1 -1,-0.1 -2,-0.3 -3,-0.7 C 9.8,60.2 7.6,56.8 5.2,54.1 4.8,53.7 4.5,53.2 4,52.8 3.3,52.1 2.5,51.7 1.6,52.1 0.7,52.5 0.2,53.2 0.1,54.2 0,55 0.4,55.9 0.7,56.6 c 0.6,1.6 1.7,3.1 2.7,4.5 0.4,0.5 0.9,1.1 1.3,1.6 0.8,0.9 1.7,1.9 2.6,2.7 0.7,1 1.5,2 2.5,2.6 0.5,0.3 1.1,1.5 1.1,2.1 0.1,2.8 0.3,4.5 0.4,7.3 0.1,3.4 0.4,6.9 0.6,10.3 2.4,-1.2 9.9,-5.9 13.7,-10.6 0,-2.5 -0.1,-5.1 -0.2,-7.7 z M 44.2,49.5 c -0.1,-1.6 -0.7,-5 0.9,-6 1.6,-1 4.4,-0.4 6.3,-0.5 2.1,-0.1 4.1,-0.4 6.1,-0.9 1.2,-0.3 3,-0.5 3.9,-1.4 1.3,-1.2 0.8,-3.8 0.1,-5.2 C 60.7,34 59,33.9 57.5,33.8 55.1,33.6 52.7,33.2 50.3,32.8 43,31.4 35.8,29.4 29.7,24.9 24.8,21.3 22.1,16.2 19.8,10.7 18.5,7.6 17.3,4.4 15.6,1.4 15,0.3 14,-0.1 12.7,0 11.5,0.1 10.8,0.9 10.4,2 10,3.2 10,4.4 10.1,5.6 c 0.2,2.6 0.5,5.1 1,7.6 0.9,4.4 2.5,8.6 4.5,12.5 1.6,3.1 4,5.8 5,9.2 0.6,2.3 0.8,4.8 0.8,7.3 3.4,1.7 5.7,5.2 5.7,9.2 0,0.6 -0.1,1.2 -0.2,1.8 0.3,-0.5 0.5,-0.9 0.8,-1.4 0.4,-0.8 0.8,-1.6 1.3,-2.4 0.4,-0.7 1.1,-2 2.6,-2 0.5,0 1,0.2 1.6,0.4 0.2,0.1 1.1,0.6 1.5,1.3 0.3,0.6 0.6,1.4 0.5,2.4 -0.2,2.5 -0.6,4.6 -1.2,6.6 -1.1,3.4 -3.2,6.5 -6.6,9.8 -0.4,0.4 -0.6,0.8 -0.5,1.5 0.1,2.6 0.2,5.2 0.2,7.7 v 0.6 c 0,0 -1.3,1.4 -1.7,1.9 6.9,5.9 27.2,-2.1 25,-4.2 -1.5,-1.3 -6.1,-21.9 -6.2,-25.9 z m 24.7,-5.9 c -0.7,1.2 -1.3,2.5 -2,3.7 -1.7,2.9 -3.8,5.2 -7.2,5.8 -0.6,0.1 -1.3,0.1 -1.9,0.1 -0.8,0 -1.6,-0.2 -2.3,-0.5 -2.8,-1.1 -4.5,-3.8 -6.4,-5.9 -0.3,-0.3 -0.6,-0.7 -0.9,-1 -0.5,-0.5 -1.2,-0.9 -1.9,-0.6 -0.7,0.3 -1.1,0.9 -1.2,1.7 -0.1,0.7 0.2,1.3 0.4,1.9 0.5,1.3 1.3,2.5 2.2,3.6 0.3,0.4 4.4,5.1 6.3,13.7 1,4.5 0,8.6 0,8.6 1.9,-1 8.2,-2.6 11.3,-3.4 0,-2 -0.1,-10.4 -0.2,-12.4 0,-0.8 0.2,-1.4 0.8,-2 2.1,-2.1 3.9,-4.4 4.9,-7.3 0.5,-1.6 0.9,-3.2 0.9,-4.8 0,-1.8 -2.1,-2.3 -2.8,-1.2 z M 58.1,43.4 c -2,0 -4.5,1.9 -4.1,4.3 0.3,2.3 1.8,4.3 4.1,4.3 2.3,0 4.1,-1.9 4.1,-4.3 0,-2.3 -1.5,-4.2 -4.1,-4.3 z"
           id="path3762"
           inkscape:connector-curvature="0" />
      </g>
    </g>
  </g>
</svg>
